{
  "_comment": "This is a Packer file that prepares an Amazon AWS AMI for a single-host non-elastic Accezz.io PoD",
  "variables": {
    "aws_access_key": "",
    "aws_secret_key": "",
    "build_number": "{{env `CIRCLE_BUILD_NUM`}}",
    "region" : "",
    "source_unix_ami" : "",
    "instance_type" : ""
  },

  "builders": [{
    "type": "amazon-ebs",
    "access_key": "{{user `aws_access_key`}}",
    "secret_key": "{{user `aws_secret_key`}}",
    "region": "{{user `region`}}",
    "source_ami": "{{user `source_unix_ami`}}",
    "instance_type": "{{user `instance_type`}}",
    "ssh_username": "ubuntu",
    "ami_name": "accezz-io-pod {{user `build_number`}}",
    "tags": {
        "role": "accezz-io-pod",
        "version": "{{user `build_number`}}"
    }
  }],
  "provisioners": [
      {
        "type": "file",
        "source": "./instance_management/accezz-pod-compose.yml",
        "destination": "/tmp/accezz-pod-compose.yml"
      },
      {
        "type": "file",
        "source": "./instance_management/mount-certstore",
        "destination": "/tmp/mount-certstore"
      },      
      {
        "type": "file",
        "source": "./remote_provisioners/pre-destruct.sh",
        "destination": "/tmp/pre-destruct.sh"
      },      
      {
        "type": "shell",
        "script": "./remote_provisioners/install-docker-and-containers.sh"
      },
      {
        "type": "shell",
        "script": "./remote_provisioners/install-s3fs.sh"
      },
      {
        "type": "shell",
        "script": "./remote_provisioners/prepare-directories.sh"
      }      
    ]
}